{
  "urn:oid:0.9.2342.19200300.100.1.1": "uid",
  "urn:oid:0.9.2342.19200300.100.1.3": "mail",
  "urn:oid:0.9.2342.19200300.100.1.20": "homePhone",
  "urn:oid:0.9.2342.19200300.100.1.39": "homePostalAddress",
  "urn:oid:0.9.2342.19200300.100.1.41": "mobile",
  "urn:oid:0.9.2342.19200300.100.1.43": "co",
  "urn:oid:0.9.2342.19200300.100.1.44": "uniqueIdentifier",
  "urn:oid:0.9.2342.19200300.100.1.45": "organizationalStatus",
  "urn:oid:0.9.2342.19200300.100.1.60": "jpegPhoto",
  "urn:oid:0.9.2342.19200300.100.1.7": "photo",
  "urn:oid:0.9.2342.19200300.100.1.9": "host",
  "urn:oid:1.2.840.113549.1.9.1": "email",
  "urn:oid:1.3.6.1.4.1.5923.1.1.1.1": "eduPersonAffiliation",
  "urn:oid:1.3.6.1.4.1.5923.1.1.1.11": "eduPersonAssurance",
  "urn:oid:1.3.6.1.4.1.5923.1.1.1.10": "eduPersonTargetedID",
  "urn:oid:1.3.6.1.4.1.5923.1.1.1.2": "eduPersonNickname",
  "urn:oid:1.3.6.1.4.1.5923.1.1.1.3": "eduPersonOrgDN",
  "urn:oid:1.3.6.1.4.1.5923.1.1.1.4": "eduPersonOrgUnitDN",
  "urn:oid:1.3.6.1.4.1.5923.1.1.1.5": "eduPersonPrimaryAffiliation",
  "urn:oid:1.3.6.1.4.1.5923.1.1.1.6": "eduPersonPrincipalName",
  "urn:oid:1.3.6.1.4.1.5923.1.1.1.7": "eduPersonEntitlement",
  "urn:oid:1.3.6.1.4.1.5923.1.1.1.8": "eduPersonPrimaryOrgUnitDN",
  "urn:oid:1.3.6.1.4.1.5923.1.1.1.9": "eduPersonScopedAffiliation",
  "urn:oid:1.3.6.1.4.1.25178.1.2.1": "schacMotherTongue",
  "urn:oid:1.3.6.1.4.1.25178.1.2.2": "schacGender",
  "urn:oid:1.3.6.1.4.1.25178.1.2.3": "schacDateOfBirth",
  "urn:oid:1.3.6.1.4.1.25178.1.2.4": "schacPlaceOfBirth",
  "urn:oid:1.3.6.1.4.1.25178.1.2.5": "schacCountryOfCitizenship",
  "urn:oid:1.3.6.1.4.1.25178.1.2.8": "schacPersonalTitle",
  "urn:oid:1.3.6.1.4.1.25178.1.2.9": "schacHomeOrganization",
  "urn:oid:1.3.6.1.4.1.25178.1.2.10": "schacHomeOrganizationType",
  "urn:oid:1.3.6.1.4.1.25178.1.2.11": "schacCountryOfResidence",
  "urn:oid:1.3.6.1.4.1.25178.1.2.12": "schacUserPresenceID",
  "urn:oid:1.3.6.1.4.1.25178.1.2.13": "schacPersonalPosition",
  "urn:oid:1.3.6.1.4.1.25178.1.2.14": "schacPersonalUniqueCode",
  "urn:oid:1.3.6.1.4.1.25178.1.2.15": "schacPersonalUniqueID",
  "urn:oid:1.3.6.1.4.1.25178.1.2.17": "schacExpiryDate",
  "urn:oid:1.3.6.1.4.1.25178.1.2.18": "schacUserPrivateAttribute",
  "urn:oid:1.3.6.1.4.1.25178.1.2.19": "schacUserStatus",
  "urn:oid:1.3.6.1.4.1.25178.1.2.20": "schacProjectMembership",
  "urn:oid:1.3.6.1.4.1.25178.1.2.21": "schacProjectSpecificRole",
  "urn:oid:2.16.840.1.113730.3.1.241": "displayName",
  "urn:oid:2.16.840.1.113730.3.1.3": "employeeNumber",
  "urn:oid:2.16.840.1.113730.3.1.39": "preferredLanguage",
  "urn:oid:2.16.840.1.113730.3.1.4": "employeeType",
  "urn:oid:2.5.4.10": "o",
  "urn:oid:2.5.4.11": "ou",
  "urn:oid:2.5.4.12": "title",
  "urn:oid:2.5.4.13": "description",
  "urn:oid:2.5.4.16": "postalAddress",
  "urn:oid:2.5.4.17": "postalCode",
  "urn:oid:2.5.4.18": "postOfficeBox",
  "urn:oid:2.5.4.20": "telephoneNumber",
  "urn:oid:2.5.4.3": "cn",
  "urn:oid:2.5.4.36": "userCertificate",
  "urn:oid:2.5.4.37": "cACertificate",
  "urn:oid:2.5.4.38": "authorityRevocationList",
  "urn:oid:2.5.4.39": "certificateRevocationList",
  "urn:oid:2.5.4.4": "sn",
  "urn:oid:2.5.4.41": "name",
  "urn:oid:2.5.4.42": "givenName",
  "urn:oid:2.5.4.43": "initials",
  "urn:oid:2.5.4.9": "street",
  "urn:oid:1.3.6.1.4.1.11914.0.1.155": "niifPersonCityOfBirth",
  "urn:oid:1.3.6.1.4.1.11914.0.1.152": "niifPersonDateOfBirth",
  "urn:oid:1.3.6.1.4.1.11914.0.1.153": "niifPersonActivityStatus",
  "urn:oid:1.3.6.1.4.1.11914.0.1.169": "niifPersonJoinDate" ,
  "urn:oid:1.3.6.1.4.1.11914.0.1.154": "niifPersonOrgID",
  "urn:oid:1.3.6.1.4.1.11914.0.1.151": "niifCertificateSubjectDN",
  "urn:oid:1.3.6.1.4.1.11914.0.1.161": "niifEduPersonFacultyDN",
  "urn:oid:1.3.6.1.4.1.11914.0.1.167": "niifPersonPosition" ,
  "urn:oid:1.3.6.1.4.1.11914.0.1.1": "niifStatus",
  "urn:oid:1.3.6.1.4.1.11914.0.1.158": "niifPersonIdentityNumber",
  "urn:oid:1.3.6.1.4.1.11914.0.1.2": "niifTitle",
  "urn:oid:1.3.6.1.4.1.11914.0.1.173": "niifCertificateSHA1Fingerprint",
  "urn:oid:1.3.6.1.4.1.11914.0.1.164": "niifEduPersonAttendedCourse",
  "urn:oid:1.3.6.1.4.1.11914.0.1.171": "niifEduPersonArchiveCourse",
  "urn:oid:1.3.6.1.4.1.11914.0.1.172": "niifEduPersonHeldCourse",
  "urn:oid:1.3.6.1.4.1.11914.0.1.0": "niifPrefix",
  "urn:oid:1.3.6.1.4.1.11914.0.1.166": "niifPersonDegree" ,
  "urn:oid:1.3.6.1.4.1.11914.0.1.160": "niifEduPersonFaculty",
  "urn:oid:1.3.6.1.4.1.11914.0.1.162": "niifEduPersonMajor",
  "urn:oid:1.3.6.1.4.1.11914.0.1.170": "niifPersonQuitDate" ,
  "urn:oid:1.3.6.1.4.1.11914.0.1.157": "niifPersonMothersName",
  "urn:oid:1.3.6.1.4.1.11914.0.1.163": "niifEduPersonAcademicYear",
  "urn:oid:1.3.6.1.4.1.11914.0.1.156": "niifPersonCountyOfBirth",
  "urn:oid:1.3.6.1.4.1.11914.0.1.3": "niifUniqueId",
  "urn:oid:1.3.6.1.4.1.11914.0.1.165": "niifPersonPrefix" ,
  "urn:oid:1.3.6.1.4.1.11914.0.1.168": "niifActiveMemberOf" ,
  "urn:oid:1.3.6.1.4.1.11914.0.1.159": "niifPersonResidentalAddress",
  "urn:oid:1.3.6.1.4.1.11914.0.1.100": "niifIDPrefix"
}
